<?xml version="1.0" encoding="UTF-8"?>
<svg width="264px" height="264px" viewBox="0 0 264 264" version="1.1" xmlns="http://www.w3.org/2000/svg" xmlns:xlink="http://www.w3.org/1999/xlink">
    <!-- Generator: sketchtool 62 (101010) - https://sketch.com -->
    <title>1E940FC3-477F-49DB-B5C5-F2A0A94E3E59</title>
    <desc>Created with sketchtool.</desc>
    <g id="Page-1" stroke="none" stroke-width="1" fill="none" fill-rule="evenodd">
        <g id="Apzumi-DH4" transform="translate(-383.000000, -6636.000000)">
            <g id="Section-10" transform="translate(383.000000, 6538.000000)">
                <g id="Group-33" transform="translate(0.000000, 97.405714)">
                    <g id="Group-35">
                        <g id="Icons-/-app-cat" transform="translate(0.000000, 0.594286)">
                            <circle id="Oval" stroke="#DCDDE5" cx="130.992366" cy="237" r="12.5"></circle>
                            <g id="Icons-/-263x263" transform="translate(93.022901, 60.778911)" fill="#283480" fill-rule="nonzero">
                                <path d="M56.1022368,54.7565919 C55.4810747,54.1476459 54.4842236,54.1578869 53.8755004,54.7792797 L53.8307831,54.8249703 C53.2222174,55.4465207 53.232452,56.4439948 53.8536141,57.0530983 C54.1600226,57.3535537 54.5579128,57.50323 54.9554881,57.50323 C55.3637703,57.50323 55.7718951,57.3452034 56.0803505,57.0304106 L56.1250679,56.9847199 C56.7336336,56.3631696 56.723399,55.3656955 56.1022368,54.7565919 Z" id="Path"></path>
                                <path d="M70.8857389,29.3549188 C69.534011,19.3291979 61.1822427,11.8279893 51.2690406,11.8279893 C46.2648975,11.8279893 41.5837798,13.699951 37.9328119,17.1311788 C34.2816992,13.699951 29.6005815,11.8279893 24.5965831,11.8279893 C13.6756635,11.8279893 4.79087452,20.9565803 4.79087452,32.1771672 C4.79087452,34.3940671 5.43533325,36.8789296 6.71744863,39.6218785 L6.2381207,39.6218785 C5.43880664,39.6218785 4.79087452,40.2721053 4.79087452,41.0742501 C4.79087452,41.8763949 5.43880664,42.5266216 6.2381207,42.5266216 L8.2587658,42.5266216 C10.9617875,47.1190205 15.2363738,52.3413129 21.065013,58.15748 C28.9640826,66.0396456 36.9737218,72.20627 37.0537546,72.2677053 C37.3131011,72.4668255 37.6229565,72.5663129 37.9328119,72.5663129 C38.2426673,72.5663129 38.552378,72.4668255 38.8118692,72.2677053 C38.872943,72.2207937 44.9988466,67.5066861 51.7875889,61.0834277 C52.3692372,60.5331241 52.396156,59.6139182 51.8477944,59.0303553 C51.2995775,58.4467924 50.3836154,58.419633 49.8019672,58.9699366 C44.6245887,63.8686406 39.8447688,67.7527179 37.9329566,69.2701557 C35.6610696,67.4663102 29.3363143,62.3172173 23.0852239,56.077103 C18.0806467,51.0810901 14.2494966,46.5281957 11.6593601,42.5266216 L24.6159762,42.5266216 C25.2615927,42.5266216 25.829058,42.0974458 26.0070692,41.4748141 L28.5356978,32.6295809 L35.5380536,55.1439542 C35.7267745,55.7504646 36.2864246,56.1636643 36.9195948,56.1636643 C37.552765,56.1636643 38.1124151,55.7504646 38.3009913,55.1439542 L42.1788874,42.672004 L48.6399732,42.672004 C49.4392873,42.672004 50.0872194,42.0217773 50.0872194,41.2196325 C50.0872194,40.4174876 49.4392873,39.7672609 48.6399732,39.7672609 L41.1144379,39.7672609 C40.4812677,39.7672609 39.9214728,40.1803154 39.7328967,40.786971 L36.9191607,49.8359719 L29.8586255,27.1345331 C29.6681679,26.522068 29.1011368,26.1061088 28.4602962,26.1149683 C27.8210476,26.1223754 27.2622658,26.5499536 27.0858465,27.1667758 L23.5251868,39.6220237 L9.94654429,39.6220237 C8.45052592,36.7875754 7.68536687,34.2893511 7.68536687,32.1771672 C7.68536687,22.5582556 15.2716866,14.7327324 24.5965831,14.7327324 C29.2833451,14.7327324 33.6418717,16.6661294 36.8690859,20.1765115 C37.1431944,20.4745381 37.5287407,20.6440299 37.9328119,20.6440299 C38.336883,20.6440299 38.7225741,20.4745381 38.9965378,20.1765115 C42.2237521,16.6661294 46.5822786,14.7327324 51.2690406,14.7327324 C59.3312149,14.7327324 66.1855175,20.5674899 67.8146825,28.5484168 C67.2709521,28.4771054 66.7168016,28.4397794 66.1539675,28.4397794 C59.1314949,28.4397794 53.4182012,34.1733066 53.4182012,41.2206491 C53.4182012,48.2679916 59.1314949,54.0015188 66.1539675,54.0015188 C73.1764401,54.0015188 78.8897338,48.2679916 78.8897338,41.2206491 C78.8897338,35.8503601 75.5720667,31.243728 70.8857389,29.3549188 Z M66.1140684,51.148062 C60.6546086,51.148062 56.2129278,46.7024351 56.2129278,41.238125 C56.2129278,35.7738148 60.6546086,31.328188 66.1140684,31.328188 C71.5735283,31.328188 76.0152091,35.7738148 76.0152091,41.238125 C76.0152091,46.7024351 71.5735283,51.148062 66.1140684,51.148062 Z" id="Shape"></path>
                                <path d="M71.423735,39.7583838 L67.5967547,39.7583838 L67.5967547,35.9280036 C67.5967547,35.1319175 66.9520121,34.4866021 66.1566327,34.4866021 C65.3612533,34.4866021 64.7165107,35.1319175 64.7165107,35.9280036 L64.7165107,39.7583838 L60.8895304,39.7583838 C60.094151,39.7583838 59.4494084,40.4036992 59.4494084,41.1997852 C59.4494084,41.9958713 60.094151,42.6411867 60.8895304,42.6411867 L64.7165107,42.6411867 L64.7165107,46.4715669 C64.7165107,47.2676529 65.3612533,47.9129684 66.1566327,47.9129684 C66.9520121,47.9129684 67.5967547,47.2676529 67.5967547,46.4715669 L67.5967547,42.6411867 L71.423735,42.6411867 C72.2191144,42.6411867 72.863857,41.9958713 72.863857,41.1997852 C72.863857,40.4036992 72.2191144,39.7583838 71.423735,39.7583838 Z" id="Path"></path>
                            </g>
                            <text id="Health-&amp;-Wellness" font-family="ProximaNova-Regular, Proxima Nova" font-size="24" font-weight="normal" fill="#222222">
                                <tspan x="39.299084" y="186.339695">Health &amp; Wellness</tspan>
                            </text>
                            <rect id="Rectangle" stroke="#DCDDE5" x="0.5" y="0.5" width="263" height="263"></rect>
                            <rect id="Rectangle-Copy" stroke="#DCDDE5" x="0.5" y="0.5" width="263" height="27.2137405"></rect>
                            <rect id="Rectangle-Copy-3" stroke="#DCDDE5" x="9.60687023" y="9.60687023" width="9" height="9" rx="4.5"></rect>
                        </g>
                    </g>
                </g>
            </g>
        </g>
    </g>
</svg>