<?xml version="1.0" encoding="UTF-8"?>
<svg width="263px" height="263px" viewBox="0 0 263 263" version="1.1" xmlns="http://www.w3.org/2000/svg" xmlns:xlink="http://www.w3.org/1999/xlink">
    <!-- Generator: Sketch 62 (91390) - https://sketch.com -->
    <title>Icons / 263x263 / dataAnalysis Copy</title>
    <desc>Created with Sketch.</desc>
    <defs>
        <polygon id="path-1" points="0 260 260 260 260 0 0 0"></polygon>
    </defs>
    <g id="Icons-/-263x263-/-dataAnalysis-Copy" stroke="none" stroke-width="1" fill="none" fill-rule="evenodd">
        <g id="dataAnlysis" transform="translate(2.000000, 3.000000)">
            <path d="M147.6846,12.6875 L22.0626,12.6875 C16.8846,12.6875 12.6876,16.8845 12.6876,22.0625 L12.6876,233.9375 C12.6876,239.1155 16.8846,243.3125 22.0626,243.3125 L183.3126,243.3125 C188.4906,243.3125 192.6876,239.1155 192.6876,233.9375 L192.6876,57.6885 L147.6846,12.6875 Z" id="Fill-1" fill="#FFFFFF"></path>
            <mask id="mask-2" fill="white">
                <use xlink:href="#path-1"></use>
            </mask>
            <g id="Clip-6"></g>
            <path d="M169.25,238.625 L189.875,238.625 L189.875,146.281 L169.25,146.281 L169.25,238.625 Z M120.5,238.625 L141.125,238.625 L141.125,179.094 L120.5,179.094 L120.5,238.625 Z M71.75,238.625 L92.375,238.625 L92.375,205.812 L71.75,205.812 L71.75,238.625 Z M152.375,48.313 L152.375,24.003 L181.371,53 L157.062,53 C154.474,53 152.375,50.901 152.375,48.313 L152.375,48.313 Z M243.312,105.969 L213.312,105.969 C210.724,105.969 208.625,108.067 208.625,110.656 L208.625,134.182 C208.625,136.531 210.292,138.632 212.617,138.966 C215.515,139.382 218,137.145 218,134.328 L218,115.344 L238.625,115.344 L238.625,238.625 L228.312,238.625 L218,238.625 L218,169.513 C218,167.163 216.333,165.063 214.008,164.729 C211.11,164.312 208.625,166.55 208.625,169.367 L208.625,238.625 L199.25,238.625 L199.25,141.594 C199.25,139.005 197.151,136.906 194.562,136.906 L164.562,136.906 C161.974,136.906 159.875,139.005 159.875,141.594 L159.875,238.625 L150.5,238.625 L150.5,174.406 C150.5,171.817 148.401,169.719 145.812,169.719 L115.813,169.719 C113.224,169.719 111.125,171.817 111.125,174.406 L111.125,238.625 L101.75,238.625 L101.75,201.125 C101.75,198.536 99.651,196.437 97.063,196.437 L67.063,196.437 C64.474,196.437 62.375,198.536 62.375,201.125 L62.375,238.625 L22.062,238.625 C19.474,238.625 17.375,236.526 17.375,233.938 L17.375,22.063 C17.375,19.474 19.474,17.375 22.062,17.375 L143,17.375 L143,48.313 C143,56.079 149.296,62.375 157.062,62.375 L188,62.375 L188,119.883 C188,122.233 189.667,124.333 191.992,124.667 C194.89,125.083 197.375,122.847 197.375,120.03 L197.375,57.689 C197.375,56.446 196.881,55.254 196.002,54.375 L150.999,9.373 C150.12,8.494 148.928,8 147.685,8 L22.062,8 C14.296,8 8,14.296 8,22.063 L8,233.938 C8,241.704 14.296,248 22.062,248 L243.312,248 C245.901,248 248,245.901 248,243.313 L248,110.656 C248,108.067 245.901,105.969 243.312,105.969 L243.312,105.969 Z" id="Fill-12" fill="#283480" mask="url(#mask-2)"></path>
            <path d="M213.3125,155.6045 C214.5445,155.6045 215.7545,155.1035 216.6265,154.2315 C217.4985,153.3595 217.9995,152.1505 217.9995,150.9175 C217.9995,149.6845 217.4985,148.4745 216.6265,147.6035 C215.7545,146.7265 214.5445,146.2295 213.3125,146.2295 C212.0805,146.2295 210.8705,146.7265 209.9985,147.6035 C209.1265,148.4745 208.6255,149.6845 208.6255,150.9175 C208.6255,152.1505 209.1265,153.3595 209.9985,154.2315 C210.8705,155.1025 212.0805,155.6045 213.3125,155.6045" id="Fill-13" fill="#283480" mask="url(#mask-2)"></path>
            <path d="M81.125,84.8745 L81.125,43.1915 C103.087,45.3955 120.604,62.9135 122.809,84.8745 L81.125,84.8745 Z M42.752,91.4655 C41.767,73.6125 54.75,58.5225 71.75,56.1485 L71.75,89.5625 C71.75,92.1515 73.849,94.2495 76.438,94.2495 L109.851,94.2495 C107.478,111.2495 92.388,124.2335 74.535,123.2485 C57.486,122.3075 43.693,108.5135 42.752,91.4655 L42.752,91.4655 Z M71.75,38.2705 L71.75,46.7025 C49.386,49.1305 32.102,68.7315 33.392,92.0055 C34.601,113.7925 52.208,131.4005 73.995,132.6085 C97.27,133.8985 116.87,116.6145 119.298,94.2495 L127.729,94.2495 C130.311,94.2495 132.416,92.1615 132.417003,89.5805 C132.427,58.6985 107.301,33.5725 76.419,33.582497 C73.839,33.5835 71.75,35.6885 71.75,38.2705 L71.75,38.2705 Z" id="Fill-14" fill="#283480" mask="url(#mask-2)"></path>
            <path d="M127.3848,145.8125 L38.1468,145.8125 C35.7968,145.8125 33.6968,147.4785 33.3628,149.8035 C32.9458,152.7015 35.1828,155.1875 37.9998,155.1875 L127.5308,155.1875 C130.3488,155.1875 132.5858,152.7015 132.1688,149.8035 C131.8338,147.4785 129.7348,145.8125 127.3848,145.8125" id="Fill-15" fill="#283480" mask="url(#mask-2)"></path>
            <path d="M38,168.7812 C35.183,168.7812 32.945,171.2672 33.362,174.1652 C33.697,176.4902 35.797,178.1562 38.146,178.1562 L67.854,178.1562 C70.203,178.1562 72.303,176.4902 72.638,174.1652 C73.055,171.2672 70.817,168.7812 68,168.7812 L38,168.7812 Z" id="Fill-16" fill="#283480" mask="url(#mask-2)"></path>
            <path d="M88.1611,169.9199 C87.2841,170.7919 86.7871,172.0019 86.7871,173.2339 C86.7871,174.4669 87.2841,175.6769 88.1611,176.5479 C89.0331,177.4199 90.2371,177.9219 91.4741,177.9219 C92.7081,177.9219 93.9171,177.4199 94.7891,176.5479 C95.6611,175.6769 96.1621,174.4669 96.1621,173.2339 C96.1621,172.0019 95.6611,170.7919 94.7891,169.9199 C93.9171,169.0489 92.7081,168.5469 91.4741,168.5469 C90.2371,168.5469 89.0331,169.0479 88.1611,169.9199" id="Fill-17" fill="#283480" mask="url(#mask-2)"></path>
        </g>
    </g>
</svg>