<?xml version="1.0" encoding="UTF-8"?>
<svg width="264px" height="264px" viewBox="0 0 264 264" version="1.1" xmlns="http://www.w3.org/2000/svg" xmlns:xlink="http://www.w3.org/1999/xlink">
    <!-- Generator: sketchtool 62 (101010) - https://sketch.com -->
    <title>89158703-F0A8-4515-839B-1730A52D594D</title>
    <desc>Created with sketchtool.</desc>
    <g id="Page-1" stroke="none" stroke-width="1" fill="none" fill-rule="evenodd">
        <g id="Apzumi-DH4" transform="translate(-1039.000000, -6636.000000)">
            <g id="Section-10" transform="translate(383.000000, 6538.000000)">
                <g id="Group-33" transform="translate(0.000000, 97.405714)">
                    <g id="Group-35">
                        <g id="Icons-/-app-cat-Copy-2" transform="translate(656.000000, 0.594286)">
                            <circle id="Oval" stroke="#DCDDE5" cx="130.992366" cy="237" r="12.5"></circle>
                            <g id="Icons-/-263x263" transform="translate(93.022901, 60.778911)" fill="#283480" fill-rule="nonzero">
                                <g id="Group-22" transform="translate(7.346008, 7.352534)">
                                    <path d="M23.9548718,50.1890358 C23.6173827,50.1890358 23.2878813,50.3258969 23.050241,50.5636553 C22.8126006,50.801414 22.6768061,51.1310792 22.6768061,51.4677374 C22.6768061,51.803896 22.8126006,52.1340607 23.050241,52.3718194 C23.2888798,52.6095778 23.6188804,52.7464389 23.9548718,52.7464389 C24.2898649,52.7464389 24.6193662,52.6095778 24.8585043,52.3718194 C25.0961447,52.1340607 25.2319392,51.803896 25.2319392,51.4677374 C25.2319392,51.1310792 25.0961447,50.801414 24.8585043,50.5636553 C24.620864,50.3258969 24.2908634,50.1890358 23.9548718,50.1890358 Z" id="Path"></path>
                                    <path d="M42.958439,6.39350775 C31.7750741,6.39350775 22.6768061,15.4998588 22.6768061,26.6926306 C22.6768061,37.8859309 31.7750741,46.9922819 42.958439,46.9922819 C54.1412758,46.9922819 63.2395437,37.8859309 63.2395437,26.6926306 C63.2395437,15.4998588 54.1412758,6.39350775 42.958439,6.39350775 Z M42.958439,44.2852741 C33.2660134,44.2852741 25.3814111,36.393667 25.3814111,26.6926306 C25.3814111,16.9921226 33.2660134,9.09998698 42.958439,9.09998698 C52.6503364,9.09998698 60.5354668,16.9921226 60.5354668,26.6926306 C60.5354668,36.393667 52.6503364,44.2852741 42.958439,44.2852741 L42.958439,44.2852741 Z" id="Shape"></path>
                                    <path d="M42.8833711,0 C28.1368503,0 16.1393658,12.0081433 16.1393658,26.7677651 C16.1393658,32.1133429 17.7138861,37.0973736 20.4220189,41.2817477 L1.64623443,60.0747445 C-0.548744811,62.2711421 -0.548744811,65.8456716 1.64623443,68.0420692 C2.74319281,69.1400021 4.18490964,69.6892344 5.62609515,69.6892344 C7.06781185,69.6892344 8.50899736,69.1405338 9.60648705,68.0420692 L21.3851111,56.2524491 C21.9163258,55.721294 21.9163258,54.85943 21.3851111,54.3277433 C20.8538964,53.7960567 19.9933285,53.7960567 19.4615826,54.3277433 L7.68348975,66.1168317 C6.54881509,67.2519828 4.70337521,67.2519828 3.56923174,66.1168317 C2.43508827,64.9816806 2.43508827,63.1346012 3.56923174,61.9994502 L22.0369116,43.5153633 C26.9432108,49.6207213 34.4646801,53.5355301 42.8833711,53.5355301 C57.630423,53.5355301 69.6273764,41.5273869 69.6273764,26.7677651 C69.6273764,12.0081433 57.630423,0 42.8833711,0 L42.8833711,0 Z M42.8833711,50.8132944 C29.6364695,50.8132944 18.8591852,40.0269672 18.8591852,26.7677651 C18.8591852,13.5090948 29.6364695,2.72223572 42.8833711,2.72223572 C56.1302727,2.72223572 66.907557,13.5090948 66.907557,26.7677651 C66.907557,40.0264354 56.1302727,50.8132944 42.8833711,50.8132944 Z" id="Shape"></path>
                                    <path d="M44.0276662,15.9837694 C43.0725273,15.9837694 42.1748762,16.3105233 41.5003193,16.9037789 C41.1590852,17.2031874 40.6047778,17.2031874 40.2640711,16.9037789 C38.8701274,15.6787989 36.6027934,15.6787989 35.2088499,16.9037789 C34.6819677,17.3672597 34.6819677,18.1185622 35.2088499,18.5820431 C35.7362595,19.0450605 36.5911905,19.0450605 37.1186001,18.5820431 C37.4593067,18.2821709 38.0141417,18.2821709 38.3548483,18.5820431 C39.0515564,19.1943013 39.9666121,19.5001986 40.8821952,19.5001986 C41.7977783,19.5001986 42.712834,19.1943013 43.4095421,18.5820431 C43.5746213,18.43651 43.7940237,18.3567914 44.0276662,18.3567914 C44.2613087,18.3567914 44.4807111,18.43651 44.6457903,18.5820431 C45.1726725,19.0455239 46.0276035,19.0455239 46.5550131,18.5820431 C47.0824227,18.1185622 47.0824227,17.3672597 46.5550131,16.9037789 C45.8799288,16.3105233 44.9822776,15.9837694 44.0276662,15.9837694 Z" id="Path"></path>
                                    <path d="M33.8555133,21.7379263 C31.2134869,21.7379263 29.0646388,23.8886835 29.0646388,26.5330571 C29.0646388,29.1774308 31.2134869,31.328188 33.8555133,31.328188 C36.4975397,31.328188 38.6463878,29.1774308 38.6463878,26.5330571 C38.6463878,23.8886835 36.4975397,21.7379263 33.8555133,21.7379263 Z M33.8555133,28.5075228 C32.7678791,28.5075228 31.8828003,27.6222085 31.8828003,26.5330571 C31.8828003,25.4444567 32.7678791,24.5585915 33.8555133,24.5585915 C34.9431475,24.5585915 35.8282263,25.4444567 35.8282263,26.5330571 C35.8282263,27.6222085 34.9431475,28.5075228 33.8555133,28.5075228 Z" id="Shape"></path>
                                    <path d="M35.1330798,34.8446172 C34.7957224,34.8446172 34.4673478,34.9814783 34.2298003,35.2192369 C33.9907557,35.4569954 33.8555133,35.7871601 33.8555133,36.1233188 C33.8555133,36.4594775 33.9907557,36.7896422 34.2298003,37.0274008 C34.4673478,37.2651594 34.7972196,37.4020203 35.1330798,37.4020203 C35.4689401,37.4020203 35.7973145,37.2651594 36.0363593,37.0274008 C36.2739068,36.7896422 36.4106464,36.4594775 36.4106464,36.1233188 C36.4106464,35.7871601 36.2739068,35.4569954 36.0363593,35.2192369 C35.7988117,34.9814783 35.4689401,34.8446172 35.1330798,34.8446172 L35.1330798,34.8446172 Z" id="Path"></path>
                                    <path d="M49.1314163,15.2894743 C49.3689638,15.0517158 49.5057034,14.7220505 49.5057034,14.3853924 C49.5057034,14.0492337 49.3689638,13.719069 49.1314163,13.4818099 C48.8938688,13.2435518 48.5639971,13.1066909 48.2281369,13.1066909 C47.8922766,13.1066909 47.5624049,13.2435518 47.3248574,13.4818099 C47.0873098,13.719069 46.9505703,14.0492337 46.9505703,14.3853924 C46.9505703,14.7220505 47.0873098,15.0517158 47.3248574,15.2894743 C47.5624049,15.5272329 47.8922766,15.664094 48.2281369,15.664094 C48.5639971,15.664094 48.8933697,15.5277324 49.1314163,15.2894743 Z" id="Path"></path>
                                    <path d="M43.4491491,29.6391736 C43.4841477,29.4004515 43.6134164,29.1889808 43.8132467,29.0440034 C44.4516877,28.5812752 44.5798275,27.7059611 44.1005733,27.09008 C43.6213192,26.4741991 42.7153088,26.3499328 42.0768678,26.8132061 C41.2600472,27.405651 40.7311178,28.2700646 40.5871721,29.2467538 C40.4437911,30.223988 40.7028932,31.196317 41.3164966,31.9849717 C41.6264029,32.3833867 41.542858,32.9502152 41.1307784,33.2494354 C39.4440749,34.473022 39.1031214,36.7932039 40.370407,38.4212009 C40.6803135,38.8196159 40.5967686,39.3869896 40.1841246,39.6862096 C39.5462481,40.1489379 39.4175437,41.023707 39.8973624,41.640133 C40.1813021,42.0047565 40.6148324,42.1971511 41.0540074,42.1971511 C41.356011,42.1971511 41.6608369,42.1055865 41.9210679,41.9170069 C43.607207,40.6934203 43.9481604,38.3732385 42.6814393,36.7446965 C42.371533,36.3468263 42.4550779,35.7794528 42.8671573,35.4802328 C43.6839779,34.8877879 44.2129074,34.0233743 44.356853,33.0466851 C44.5002341,32.0694509 44.2411321,31.0971219 43.6275287,30.3084671 C43.4773736,30.1155275 43.4141505,29.8778955 43.4491491,29.6391736 L43.4491491,29.6391736 Z" id="Path"></path>
                                    <path d="M55.3066009,27.359053 C55.850376,26.5570099 56.1141515,25.5930257 56.0523946,24.6224004 C55.9116096,22.4103966 54.0971065,20.6254677 51.8314636,20.4706785 C50.5528851,20.3828115 49.3339702,20.8027346 48.4002887,21.6533088 C47.4786446,22.4916226 46.9505703,23.677318 46.9505703,24.9059252 C46.9505703,26.0425785 47.3865326,27.1138424 48.1815226,27.9393847 C47.5770371,28.8277622 47.3200653,29.8934066 47.4571867,30.9621161 C47.7172986,32.9897012 49.4171851,34.6126888 51.4996507,34.8211178 C51.6561366,34.8364435 51.812099,34.8446172 51.9675381,34.8446172 C53.094341,34.8446172 54.1892186,34.438998 55.028171,33.6997901 C55.9838339,32.8579004 56.5323194,31.6543252 56.5323194,30.3981317 C56.5323194,29.2589241 56.0979273,28.1856169 55.3066009,27.359053 L55.3066009,27.359053 Z M53.2325091,31.7580288 C52.8337056,32.1094973 52.3155753,32.2739928 51.7733701,32.2188204 C50.9197633,32.1335075 50.2226424,31.4683737 50.1163995,30.6372121 C50.0556892,30.1662033 50.1786798,29.6982598 50.4618197,29.3197159 C51.1777818,28.361862 51.0605482,27.0479419 50.1818201,26.1953243 C49.8264558,25.8504968 49.6301943,25.3922596 49.6301943,24.9059252 C49.6301943,24.3925156 49.8421567,23.9163983 50.2273526,23.5659514 C50.5785299,23.2466669 51.028623,23.0750194 51.5064544,23.0750194 C51.5525104,23.0750194 51.5980431,23.076552 51.6446225,23.0796171 C52.5594628,23.1424523 53.3209576,23.8908555 53.3780042,24.7843417 C53.4057426,25.2195904 53.2848455,25.6318507 53.0278737,25.977189 C52.3150518,26.9345321 52.4296686,28.2464088 53.3010698,29.0964722 C53.6564339,29.4428321 53.8521721,29.9056671 53.8521721,30.3981317 C53.8521721,30.9156282 53.6266022,31.4111579 53.2325091,31.7580288 Z" id="Shape"></path>
                                </g>
                            </g>
                            <text id="Health-&amp;-Wellness" font-family="ProximaNova-Regular, Proxima Nova" font-size="24" font-weight="normal" fill="#222222">
                                <tspan x="73.355084" y="186.339695">Diagnostics</tspan>
                            </text>
                            <rect id="Rectangle" stroke="#DCDDE5" x="0.5" y="0.5" width="263" height="263"></rect>
                            <rect id="Rectangle-Copy" stroke="#DCDDE5" x="0.5" y="0.5" width="263" height="27.2137405"></rect>
                            <rect id="Rectangle-Copy-3" stroke="#DCDDE5" x="9.60687023" y="9.60687023" width="9" height="9" rx="4.5"></rect>
                        </g>
                    </g>
                </g>
            </g>
        </g>
    </g>
</svg>