<?xml version="1.0" encoding="UTF-8"?>
<svg width="264px" height="264px" viewBox="0 0 264 264" version="1.1" xmlns="http://www.w3.org/2000/svg" xmlns:xlink="http://www.w3.org/1999/xlink">
    <!-- Generator: sketchtool 62 (101010) - https://sketch.com -->
    <title>05ADCE70-63FB-4354-B7FE-1F469FAFECD0</title>
    <desc>Created with sketchtool.</desc>
    <defs>
        <polygon id="path-1" points="0 83.1156007 83.0418251 83.1156007 83.0418251 0 0 0"></polygon>
    </defs>
    <g id="Page-1" stroke="none" stroke-width="1" fill="none" fill-rule="evenodd">
        <g id="Apzumi-DH4" transform="translate(-383.000000, -6964.000000)">
            <g id="Section-10" transform="translate(383.000000, 6538.000000)">
                <g id="Group-33" transform="translate(0.000000, 97.405714)">
                    <g id="Group-35">
                        <g id="Icons-/-app-cat-Copy-3" transform="translate(0.000000, 328.594286)">
                            <circle id="Oval" stroke="#DCDDE5" cx="130.992366" cy="237" r="12.5"></circle>
                            <g id="Icons-/-263x263" transform="translate(93.022901, 60.778911)">
                                <g id="dataAnlysis" transform="translate(0.638783, 0.959026)">
                                    <path d="M47.1692259,4.05588148 L7.04660989,4.05588148 C5.3928,4.05588148 4.05231331,5.39755908 4.05231331,7.05283823 L4.05231331,74.7840609 C4.05231331,76.4393401 5.3928,77.7810177 7.04660989,77.7810177 L58.548511,77.7810177 C60.2023209,77.7810177 61.5428076,76.4393401 61.5428076,74.7840609 L61.5428076,18.4415936 L47.1692259,4.05588148 Z" id="Fill-1" fill="#FFFFFF"></path>
                                    <mask id="mask-2" fill="white">
                                        <use xlink:href="#path-1"></use>
                                    </mask>
                                    <g id="Clip-6"></g>
                                    <path d="M54.0570342,76.2825393 L60.6444867,76.2825393 L60.6444867,46.7624353 L54.0570342,46.7624353 L54.0570342,76.2825393 Z M38.486692,76.2825393 L45.0741445,76.2825393 L45.0741445,57.2519438 L38.486692,57.2519438 L38.486692,76.2825393 Z M22.9163498,76.2825393 L29.5038023,76.2825393 L29.5038023,65.7930308 L22.9163498,65.7930308 L22.9163498,76.2825393 Z M48.6673004,15.444477 L48.6673004,7.67316832 L57.9283802,16.9427955 L50.164289,16.9427955 C49.3377034,16.9427955 48.6673004,16.2717969 48.6673004,15.444477 L48.6673004,15.444477 Z M77.7118175,33.8756811 L68.1300684,33.8756811 C67.3034829,33.8756811 66.6330798,34.5463601 66.6330798,35.3739997 L66.6330798,42.8946828 C66.6330798,43.6456003 67.1655057,44.3172383 67.9080913,44.4240099 C68.8336882,44.5569948 69.6273764,43.841881 69.6273764,42.9413554 L69.6273764,36.8726379 L76.2148289,36.8726379 L76.2148289,76.2825393 L72.920943,76.2825393 L69.6273764,76.2825393 L69.6273764,54.1891339 C69.6273764,53.4378968 69.0949506,52.7665785 68.352365,52.6598069 C67.4267681,52.5265022 66.6330798,53.2419358 66.6330798,54.1424613 L66.6330798,76.2825393 L63.6387833,76.2825393 L63.6387833,45.2641168 C63.6387833,44.4364772 62.9683802,43.7654786 62.1414753,43.7654786 L52.5597262,43.7654786 C51.7331407,43.7654786 51.0627376,44.4364772 51.0627376,45.2641168 L51.0627376,76.2825393 L48.0684411,76.2825393 L48.0684411,55.7533056 C48.0684411,54.925666 47.398038,54.2549871 46.5711331,54.2549871 L36.9897034,54.2549871 C36.1627985,54.2549871 35.4923954,54.925666 35.4923954,55.7533056 L35.4923954,76.2825393 L32.4980989,76.2825393 L32.4980989,64.2947123 C32.4980989,63.4670727 31.8276958,62.7960741 31.0011103,62.7960741 L21.4193612,62.7960741 C20.5924563,62.7960741 19.9220532,63.4670727 19.9220532,64.2947123 L19.9220532,76.2825393 L7.04641825,76.2825393 C6.2198327,76.2825393 5.54942966,75.6115407 5.54942966,74.7842208 L5.54942966,7.05299807 C5.54942966,6.22535849 6.2198327,5.55435985 7.04641825,5.55435985 L45.6730038,5.55435985 L45.6730038,15.444477 C45.6730038,17.927076 47.6838935,19.9397523 50.164289,19.9397523 L60.0456274,19.9397523 L60.0456274,38.3236445 C60.0456274,39.0748816 60.5780532,39.7461999 61.3206388,39.8529715 C62.2462357,39.9859565 63.039924,39.2711623 63.039924,38.3706367 L63.039924,18.4417534 C63.039924,18.0443969 62.8821445,17.6633439 62.6013992,17.3823492 L48.2278175,2.99631741 C47.9470722,2.71532274 47.5663574,2.5574031 47.1693536,2.5574031 L7.04641825,2.5574031 C4.56602281,2.5574031 2.55513308,4.57007934 2.55513308,7.05299807 L2.55513308,74.7842208 C2.55513308,77.2668198 4.56602281,79.2794961 7.04641825,79.2794961 L77.7118175,79.2794961 C78.5387224,79.2794961 79.2091255,78.6084974 79.2091255,77.7811775 L79.2091255,35.3739997 C79.2091255,34.5463601 78.5387224,33.8756811 77.7118175,33.8756811 L77.7118175,33.8756811 Z" id="Fill-12" fill="#283480" mask="url(#mask-2)"></path>
                                    <path d="M68.1302281,49.7429288 C68.5237186,49.7429288 68.9101825,49.5827714 69.188692,49.3040145 C69.4672015,49.0252576 69.6272167,48.63877 69.6272167,48.2446103 C69.6272167,47.8504505 69.4672015,47.4636433 69.188692,47.185206 C68.9101825,46.9048507 68.5237186,46.7459721 68.1302281,46.7459721 C67.7367376,46.7459721 67.3502738,46.9048507 67.0717643,47.185206 C66.7932548,47.4636433 66.6332395,47.8504505 66.6332395,48.2446103 C66.6332395,48.63877 66.7932548,49.0252576 67.0717643,49.3040145 C67.3502738,49.5824518 67.7367376,49.7429288 68.1302281,49.7429288" id="Fill-13" fill="#283480" mask="url(#mask-2)"></path>
                                    <path d="M25.9106464,27.1322887 L25.9106464,13.8072595 C32.9251255,14.511824 38.5199087,20.1118975 39.2241673,27.1322887 L25.9106464,27.1322887 Z M13.6546312,29.2392691 C13.3400304,23.5321044 17.486692,18.7082029 22.9163498,17.9492935 L22.9163498,28.6309269 C22.9163498,29.4585665 23.5867529,30.1292454 24.4136578,30.1292454 L35.0854905,30.1292454 C34.3275741,35.563727 29.5079544,39.7143922 23.8058555,39.399512 C18.3605475,39.0986974 13.9551787,34.6890951 13.6546312,29.2392691 L13.6546312,29.2392691 Z M22.9163498,12.2341369 L22.9163498,14.9296398 C15.7734753,15.7058116 10.2531103,21.9717689 10.6651255,29.4118938 C11.05127,36.3766615 16.6747985,42.0055057 23.633384,42.3916736 C31.0672243,42.8040548 37.3273004,37.2787855 38.1027833,30.1292454 L40.7955741,30.1292454 C41.6202433,30.1292454 42.2925627,29.4617632 42.2928831,28.636681 C42.296076,18.7644657 34.2710418,10.7323019 24.4075894,10.7354977 C23.5835589,10.7358184 22.9163498,11.4087351 22.9163498,12.2341369 L22.9163498,12.2341369 Z" id="Fill-14" fill="#283480" mask="url(#mask-2)"></path>
                                    <path d="M40.6856395,46.6126674 L12.1837688,46.6126674 C11.4331985,46.6126674 10.762476,47.1452466 10.6557992,47.8884919 C10.5226129,48.8149112 11.237092,49.6096242 12.1368183,49.6096242 L40.7322707,49.6096242 C41.6323163,49.6096242 42.3467954,48.8149112 42.2136091,47.8884919 C42.1066129,47.1452466 41.4362099,46.6126674 40.6856395,46.6126674" id="Fill-15" fill="#283480" mask="url(#mask-2)"></path>
                                    <path d="M12.1368821,53.9551955 C11.2371559,53.9551955 10.5223574,54.7499085 10.6555437,55.6763278 C10.7625399,56.419573 11.4332624,56.9521522 12.1835133,56.9521522 L21.672,56.9521522 C22.422251,56.9521522 23.0929734,56.419573 23.1999696,55.6763278 C23.3331559,54.7499085 22.6183574,53.9551955 21.7186312,53.9551955 L12.1368821,53.9551955 Z" id="Fill-16" fill="#283480" mask="url(#mask-2)"></path>
                                    <path d="M28.1579179,54.3192098 C27.8778114,54.5979668 27.7190738,54.984774 27.7190738,55.3786141 C27.7190738,55.7727738 27.8778114,56.1595811 28.1579179,56.4380183 C28.4364274,56.7167753 28.8209749,56.8772523 29.2160624,56.8772523 C29.6101916,56.8772523 29.9963361,56.7167753 30.2748456,56.4380183 C30.5533551,56.1595811 30.7133703,55.7727738 30.7133703,55.3786141 C30.7133703,54.984774 30.5533551,54.5979668 30.2748456,54.3192098 C29.9963361,54.0407726 29.6101916,53.8802955 29.2160624,53.8802955 C28.8209749,53.8802955 28.4364274,54.0404529 28.1579179,54.3192098" id="Fill-17" fill="#283480" mask="url(#mask-2)"></path>
                                </g>
                            </g>
                            <text id="Health-&amp;-Wellness" font-family="ProximaNova-Regular, Proxima Nova" font-size="24" font-weight="normal" fill="#222222">
                                <tspan x="65.075084" y="186.339695">Data analysis</tspan>
                            </text>
                            <rect id="Rectangle" stroke="#DCDDE5" x="0.5" y="0.5" width="263" height="263"></rect>
                            <rect id="Rectangle-Copy" stroke="#DCDDE5" x="0.5" y="0.5" width="263" height="27.2137405"></rect>
                            <rect id="Rectangle-Copy-3" stroke="#DCDDE5" x="9.60687023" y="9.60687023" width="9" height="9" rx="4.5"></rect>
                        </g>
                    </g>
                </g>
            </g>
        </g>
    </g>
</svg>