<?xml version="1.0" encoding="utf-8"?>
<!-- Generator: Adobe Illustrator 19.2.0, SVG Export Plug-In . SVG Version: 6.00 Build 0)  -->
<svg version="1.1" xmlns="http://www.w3.org/2000/svg" xmlns:xlink="http://www.w3.org/1999/xlink" x="0px" y="0px"
	 viewBox="0 0 172.9 114" style="enable-background:new 0 0 172.9 114;" xml:space="preserve">
<style type="text/css">
	.st0{fill:#28347F;}
	.st1{fill-rule:evenodd;clip-rule:evenodd;fill:#28347F;}
</style>
<g id="Layer_2">
</g>
<g id="Layer_1">
	<g>
		<g>
			<path class="st0" d="M3.2,93.9h5.5V72.3l8.5,18.8c1,2.3,2.4,3.1,5,3.1c2.7,0,4-0.8,5-3.1l8.5-18.8v21.6h5.5V72.4
				c0-2.1-0.8-3.1-2.6-3.6c-4.1-1.3-6.9-0.2-8.2,2.6L22,89.9l-8-18.6c-1.2-2.8-4-3.9-8.2-2.6c-1.7,0.5-2.6,1.5-2.6,3.6V93.9
				L3.2,93.9z"/>
		</g>
		<g>
			<path class="st0" d="M45.6,76.3h5.5v11.9c-0.1,0.6,0.2,2.2,3.2,2.2c1.5,0,11.8,0,11.9,0V76.3h5.5c0,0,0,19.3,0,19.4
				c0,4.8-5.9,5.8-8.6,5.9H45.7v-3.7c0,0,17.2,0,17.3,0c3.5-0.4,3.1-2.1,3.1-2.7v-1.4H54.5c-5.4,0-8.8-2.4-8.9-5.1
				C45.6,88.3,45.7,76.5,45.6,76.3L45.6,76.3z"/>
		</g>
		<g>
			<path class="st0" d="M75.8,93.9h15.7c1.8,0,3.6-0.4,5-1.1c2.4-1.1,3.5-2.6,3.5-4.5v-4c0-1.6-1.3-3-3.9-4c-1.4-0.5-3-0.8-4.7-0.8
				h-6.6c-2.2,0-3.3-0.7-3.5-2.1c-0.1-0.2-0.1-0.3-0.1-0.5v-2.5c0-0.1,0-0.3,0.1-0.5c0.3-1.1,0.8-1.4,2.8-1.6c0.2,0,0.4,0,0.5,0
				h15.6v-3.6H85c-2.2,0-3.4,0.1-4.4,0.5c-3.3,1-4.7,2.6-4.7,5.4v3.2c0,2.5,2.8,4.6,7.5,5c0.5,0,1.1,0.1,1.6,0.1h5.7
				c0.2,0,0.4,0,0.6,0c1.7,0.1,2.5,0.5,3,1.1c0.3,0.3,0.4,0.6,0.4,1v3.2c0,0.4-0.3,0.9-0.8,1.3c-0.5,0.4-1.3,0.7-2.3,0.8
				c-0.2,0-0.4,0-0.6,0H75.8V93.9L75.8,93.9z"/>
		</g>
		<g>
			<path class="st0" d="M134.2,87.6c0,3.7,2.8,5.8,8.4,6.3c0.5,0,1.1,0.1,1.6,0.1h14.2v-3.6h-14.3c-3.2,0-4.4-0.8-4.4-2.7V68.7h-5.5
				V87.6L134.2,87.6z"/>
		</g>
		<g>
			<path class="st0" d="M103.6,87.7v-13c0-3.3,2.3-5.3,6.9-5.9c0.5-0.1,1-0.1,1.5-0.1h10.4c0.5,0,1,0,1.5,0.1
				c4.6,0.6,6.9,2.6,6.9,5.9v13c0,2.7-1,4.1-3.2,5l5.4,4.9h-6.3l-4.4-3.9l-4.4,0.3H112c-1,0-2.1-0.1-3.2-0.5
				C105.3,92.6,103.6,90.8,103.6,87.7L103.6,87.7z M109.5,87.4c0,0.2,0.1,0.4,0.1,0.6c0.3,1.5,1.7,2.4,3.9,2.4h5l-4.6-4.1h6.3l4,3.6
				c0.7-0.4,1.2-1,1.4-1.8c0.1-0.2,0.1-0.4,0.1-0.5V75.1c0-0.1,0-0.3-0.1-0.5c-0.3-1.4-1.7-2.2-3.8-2.2h-8.3c-2.4,0-4,1.1-4,2.7
				V87.4L109.5,87.4z"/>
		</g>
		<g>
			<path class="st0" d="M163.2,62.6c-3.4-0.1-5.9,0.2-8.1,1.1c-0.6,0.3-1.6,0.3-1.7,1.1c0.3,0.4,0.4,0.9,0.7,1.3
				c0.5,0.8,1.4,2,2.2,2.6c0.9,0.7,1.8,1.3,2.7,1.9c1.6,1,3.5,1.6,5.1,2.6c0.9,0.6,1.9,1.3,2.8,2c0.4,0.3,0.8,0.8,1.3,1.1
				c0,0,0-0.1,0-0.1c-0.3-0.4-0.4-0.9-0.7-1.3c-0.4-0.4-0.8-0.8-1.2-1.2c-1.2-1.6-2.8-3-4.4-4.2c-1.3-0.9-4.2-2.2-4.8-3.7
				c0,0-0.1-0.1-0.1-0.1c0.9-0.1,2-0.4,2.9-0.7c1.4-0.4,2.7-0.3,4.2-0.7c0.7-0.2,1.3-0.4,2-0.6c0-0.1,0-0.3,0-0.4
				c-0.7-0.8-1.3-1.8-2.1-2.5c-2.1-1.8-4.5-3.6-6.9-5.2c-1.3-0.8-3-1.4-4.4-2.1c-0.5-0.2-1.3-0.4-1.6-0.8c-0.7-0.9-1.1-2.1-1.7-3.2
				c-1.2-2.3-2.4-4.8-3.4-7.3c-0.7-1.7-1.2-3.3-2.1-4.8c-4.3-7.1-9-11.4-16.2-15.7c-1.5-0.9-3.4-1.3-5.3-1.7
				c-1.1-0.1-2.1-0.1-3.2-0.2c-0.6-0.3-1.3-1.1-1.9-1.4c-2.4-1.5-8.5-4.8-10.3-0.5c-1.1,2.7,1.7,5.4,2.7,6.8c0.7,1,1.6,2.1,2.1,3.2
				c0.3,0.7,0.4,1.4,0.7,2.2c0.7,1.9,1.3,3.9,2.2,5.6c0.5,0.9,1,1.8,1.5,2.6c0.4,0.5,1,0.7,1.1,1.4c-0.6,0.8-0.6,2.1-1,3.2
				c-1.5,4.7-0.9,10.6,1.2,14c0.7,1.1,2.2,3.4,4.4,2.5c1.9-0.8,1.5-3.2,2-5.3c0.1-0.5,0-0.8,0.3-1.1c0,0,0,0.1,0,0.1
				c0.6,1.1,1.1,2.3,1.7,3.4c1.3,2,3.5,4.2,5.4,5.6c1,0.7,1.8,2,3.1,2.5c0,0,0-0.1,0-0.1c0,0-0.1,0-0.1,0c-0.2-0.4-0.6-0.5-1-0.9
				c-0.7-0.7-1.6-1.6-2.2-2.5c-1.7-2.4-3.3-4.9-4.7-7.6c-0.7-1.3-1.3-2.7-1.8-4c-0.2-0.5-0.2-1.3-0.7-1.5c-0.6,1-1.5,1.7-2,2.9
				c-0.8,1.8-0.9,4-1.1,6.3c-0.2,0.1-0.1,0-0.2,0.1c-1.3-0.3-1.8-1.7-2.3-2.9c-1.3-3-1.5-7.8-0.4-11.2c0.3-0.9,1.6-3.7,1.1-4.5
				c-0.2-0.8-1.1-1.3-1.5-1.9c-0.6-0.8-1.1-1.8-1.5-2.7c-1-2.3-1.5-4.9-2.6-7.3c-0.5-1.1-1.4-2.3-2.1-3.2c-0.8-1.1-1.7-1.9-2.3-3.2
				c-0.2-0.5-0.5-1.2-0.2-1.7c0.1-0.3,0.2-0.5,0.6-0.6c0.6-0.4,2.1,0.1,2.7,0.4c1.5,0.6,2.8,1.2,4.1,2.1c0.6,0.4,1.3,1.2,2,1.4
				c0.3,0,0.6,0,0.9,0c1.3,0.3,2.8,0.1,4.1,0.5c2.2,0.7,4.2,1.7,6,2.9c5.5,3.5,10,8.4,13.1,14.3c0.5,0.9,0.7,1.9,1.1,2.9
				c0.9,2,2,4.1,2.9,6.1c0.9,2,1.7,4,3,5.6c0.6,0.9,3.2,1.3,4.3,1.8c0.8,0.3,2.1,0.7,2.9,1.1c1.4,0.9,2.8,1.9,4.2,2.9
				C161,60.7,163.1,61.8,163.2,62.6L163.2,62.6z"/>
		</g>
		<g>
			<path class="st1" d="M120.5,26.3c-0.7,0-1.2,0.1-1.7,0.2c0,0,0,0.1,0,0.1c0,0,0.1,0,0.1,0c0.3,0.7,0.9,1.1,1.3,1.7
				c0.3,0.7,0.6,1.3,1,2c0,0,0.1-0.1,0.1-0.1c0.6-0.4,0.9-1.1,0.9-2.1c-0.2-0.2-0.3-0.6-0.5-0.9C121.4,26.8,120.9,26.6,120.5,26.3
				L120.5,26.3z"/>
		</g>
		<g>
			<path class="st1" d="M161,90.1c0,2.4,1.9,4,4,4c2.1,0,4-1.6,4-4c0-2.4-1.9-4-4-4C162.9,86.1,161,87.7,161,90.1L161,90.1z
				 M168.1,90.1c0,1.8-1.4,3.2-3.1,3.2c-1.7,0-3.1-1.4-3.1-3.2c0-1.8,1.4-3.2,3.1-3.2C166.7,87,168.1,88.3,168.1,90.1L168.1,90.1z
				 M166.1,92.4h0.9l-1.3-2c0.7-0.1,1.2-0.4,1.2-1.3c0-0.9-0.6-1.3-1.7-1.3h-1.8v4.6h0.8v-2h0.7L166.1,92.4L166.1,92.4z M164.2,89.8
				v-1.3h0.9c0.5,0,1,0.1,1,0.6c0,0.6-0.5,0.7-1.1,0.7H164.2L164.2,89.8z"/>
		</g>
		<g>
			<path class="st0" d="M3.5,54.1C4,54.1,4.7,54,5.6,54c1.1,0,1.9,0.2,2.4,0.7c0.5,0.4,0.7,1,0.7,1.8c0,0.8-0.2,1.4-0.7,1.8
				c-0.6,0.6-1.5,0.9-2.6,0.9c-0.3,0-0.6,0-0.9-0.1v3.4H3.5V54.1z M4.6,58.2c0.2,0.1,0.5,0.1,0.9,0.1c1.3,0,2.1-0.6,2.1-1.8
				c0-1.1-0.8-1.6-2-1.6c-0.5,0-0.8,0-1,0.1V58.2z"/>
			<path class="st0" d="M15.6,59.4c0,2.2-1.5,3.2-3,3.2c-1.6,0-2.9-1.2-2.9-3.1c0-2,1.3-3.2,3-3.2C14.4,56.3,15.6,57.5,15.6,59.4z
				 M10.8,59.5c0,1.3,0.8,2.3,1.8,2.3c1.1,0,1.8-1,1.8-2.4c0-1-0.5-2.3-1.8-2.3C11.3,57.1,10.8,58.3,10.8,59.5z"/>
			<path class="st0" d="M17.4,56.4l0.8,3.1c0.2,0.7,0.3,1.3,0.5,1.9h0c0.1-0.6,0.3-1.3,0.5-1.9l1-3.1h0.9l0.9,3
				c0.2,0.7,0.4,1.4,0.5,2h0c0.1-0.6,0.3-1.2,0.5-2l0.9-3H25l-1.9,6.1h-1l-0.9-2.9c-0.2-0.7-0.4-1.3-0.5-2h0c-0.2,0.7-0.3,1.3-0.6,2
				l-1,2.9h-1l-1.8-6.1H17.4z"/>
			<path class="st0" d="M26.7,59.6c0,1.5,1,2.1,2.1,2.1c0.8,0,1.3-0.1,1.7-0.3l0.2,0.8c-0.4,0.2-1.1,0.4-2,0.4c-1.9,0-3-1.2-3-3.1
				c0-1.8,1.1-3.3,2.8-3.3c2,0,2.5,1.7,2.5,2.9c0,0.2,0,0.4,0,0.5H26.7z M30,58.9c0-0.7-0.3-1.8-1.5-1.8c-1.1,0-1.6,1-1.7,1.8H30z"
				/>
			<path class="st0" d="M32.4,58.3c0-0.7,0-1.3-0.1-1.9h1l0,1.2h0.1c0.3-0.8,0.9-1.3,1.7-1.3c0.1,0,0.2,0,0.3,0v1
				c-0.1,0-0.2,0-0.4,0c-0.8,0-1.3,0.6-1.5,1.4c0,0.1-0.1,0.3-0.1,0.5v3.2h-1.1V58.3z"/>
			<path class="st0" d="M37.1,59.6c0,1.5,1,2.1,2.1,2.1c0.8,0,1.3-0.1,1.7-0.3l0.2,0.8c-0.4,0.2-1.1,0.4-2,0.4c-1.9,0-3-1.2-3-3.1
				c0-1.8,1.1-3.3,2.8-3.3c2,0,2.5,1.7,2.5,2.9c0,0.2,0,0.4,0,0.5H37.1z M40.3,58.9c0-0.7-0.3-1.8-1.5-1.8c-1.1,0-1.6,1-1.7,1.8
				H40.3z"/>
			<path class="st0" d="M48,53.6v7.3c0,0.5,0,1.2,0.1,1.6h-1L47,61.4h0c-0.3,0.7-1.1,1.2-2.1,1.2c-1.5,0-2.6-1.2-2.6-3.1
				c0-2,1.2-3.3,2.7-3.3c0.9,0,1.5,0.4,1.8,0.9h0v-3.6H48z M46.9,58.9c0-0.1,0-0.3-0.1-0.5c-0.2-0.7-0.8-1.3-1.6-1.3
				c-1.1,0-1.8,1-1.8,2.3c0,1.2,0.6,2.2,1.8,2.2c0.7,0,1.4-0.5,1.6-1.3c0-0.2,0.1-0.3,0.1-0.5V58.9z"/>
			<path class="st0" d="M52.4,62.5c0-0.4,0.1-1,0.1-1.6v-7.3h1.1v3.8h0c0.4-0.7,1.1-1.1,2.1-1.1c1.5,0,2.6,1.3,2.6,3.1
				c0,2.2-1.4,3.2-2.7,3.2c-0.9,0-1.6-0.3-2-1.1h0l-0.1,1H52.4z M53.5,60c0,0.1,0,0.3,0.1,0.4c0.2,0.8,0.9,1.3,1.7,1.3
				c1.1,0,1.8-0.9,1.8-2.3c0-1.2-0.6-2.3-1.8-2.3c-0.7,0-1.5,0.5-1.7,1.4c0,0.1-0.1,0.3-0.1,0.4V60z"/>
			<path class="st0" d="M60,56.4l1.3,3.6c0.1,0.4,0.3,0.9,0.4,1.2h0c0.1-0.4,0.2-0.8,0.4-1.3l1.2-3.6h1.2l-1.7,4.3
				c-0.8,2.1-1.3,3.1-2.1,3.8c-0.5,0.5-1.1,0.7-1.3,0.7l-0.3-0.9c0.3-0.1,0.6-0.3,1-0.5c0.3-0.2,0.7-0.7,0.9-1.2
				c0.1-0.1,0.1-0.2,0.1-0.3c0-0.1,0-0.2-0.1-0.3l-2.2-5.6H60z"/>
		</g>
	</g>
</g>
</svg>
