<?xml version="1.0" encoding="utf-8"?>
<!-- Generator: Adobe Illustrator 19.2.0, SVG Export Plug-In . SVG Version: 6.00 Build 0)  -->
<svg version="1.1" xmlns="http://www.w3.org/2000/svg" xmlns:xlink="http://www.w3.org/1999/xlink" x="0px" y="0px"
	 viewBox="0 0 167.5 118.5" style="enable-background:new 0 0 167.5 118.5;" xml:space="preserve">
<style type="text/css">
	.st0{fill:#FFFFFF;}
	.st1{fill:#28347F;}
</style>
<g id="Layer_2">
</g>
<g id="Layer_1">
	<g>
		<g id="Calque_3">
			<g id="XMLID_1_">
				<path class="st0" d="M37.6,75.3c1.6,2,3.4,4,5.4,6c-5.8,1.7-9.5,4.9-11.9,7.8c-3.7,4.5-5.7,10.4-5.2,15.5H16
					C18,100.3,25.9,87.9,37.6,75.3z"/>
				<path class="st0" d="M152.4,107.3h-12c-27.6-14.4-51.9-24.6-77.7-26.8c0.1-3.6,0.7-7.6,1.9-12.2l-2.4-0.6
					c-1.3,4.6-1.9,8.9-2,12.6c-2.7-0.2-5.4-0.3-8.1-0.3c-2.3,0-4.4,0.2-6.3,0.6c-2.5-2.5-4.6-4.9-6.5-7.2
					c11.9-12.4,31.5-23.6,48.5-27.8c4.8,15.9,15.1,26.9,27.6,34.2c0.9-0.5,1.8-1.1,2.7-1.6l21.8,23.5l1-0.1c6-0.5,9.3,2.7,10.2,3.7
					C151.8,106.1,152.1,106.8,152.4,107.3z"/>
				<path class="st0" d="M141.7,28.8c0.4,21.7-10.6,38.9-26.1,47.7c-26.3-13.1-31.2-46.2-26.7-64c1.2,6.8,3.5,11.1,8.4,13.2
					c10.7-3.1,25.3-3.3,36.1-0.3c4.5-3.3,6.2-8.3,7.2-12.6C141.9,17.8,141.7,28.8,141.7,28.8z"/>
			</g>
		</g>
		<g id="Layer_1_1_">
			<polygon class="st1" points="75.7,49.3 79.7,61.2 67.5,53 			"/>
			<polygon class="st1" points="64,54.5 68.3,61.9 59.2,57.3 			"/>
			<polygon class="st1" points="54.2,60.3 56.2,67.7 50,63.4 			"/>
			<polygon class="st1" points="120.5,80.2 116.6,86.1 123.5,83 			"/>
			<polygon class="st1" points="126.6,87 120.3,91.8 129,89.5 			"/>
			<polygon class="st1" points="111.4,22.6 116,32.7 119,22.5 			"/>
			<polygon class="st1" points="88.1,37.3 95.4,41.2 88.9,41.6 			"/>
			<polygon class="st1" points="89.9,45.2 94.4,47 90.7,48 			"/>
			<polygon class="st1" points="141.9,40.1 135.9,42.7 140.8,43.4 			"/>
			<polygon class="st1" points="139.5,47.4 134.9,48.7 138.6,50.1 			"/>
		</g>
		<g id="Calque_4">
			<rect x="85.8" y="58.5" class="st1" width="14.3" height="1.8"/>
			<rect x="85.8" y="54.3" class="st1" width="14.3" height="1.8"/>
			<rect x="129.5" y="58.5" class="st1" width="14.3" height="1.8"/>
			<rect x="129.5" y="54.3" class="st1" width="14.3" height="1.8"/>
			<g>
				<path class="st1" d="M124.4,43.8h-14.8H108h-6.9v-1.6h7.3c0.9-3.8,1.1-7.5,0-9.3c-0.5-0.8-1.1-1.2-2-1.2c-4.2,0-5.9,4.4-5.9,4.6
					l0,0l-1.5-0.6c0.1-0.2,2.2-5.6,7.4-5.6c1.5,0,2.6,0.7,3.4,1.9c1.3,2.3,1.2,6.2,0.3,10.1h12.7c1.7-5,5.2-7.3,11.1-7.3v1.6
					c-6.4,0-8.2,2.7-9.5,5.7h7l0,1.6L124.4,43.8z"/>
				<path class="st1" d="M125.5,51.7L125.5,51.7c-1.9-2.8-2.5-5.2-1.7-7.9l-1.6,0c-0.6,1.8-0.3,4.5,1.1,6.8H107c1-2,1.9-4.4,2.6-6.8
					H108c-0.7,2.6-1.8,5.2-2.9,7.2l-0.4,0.7l9.1,5.7l-5.1,3.4l0.9,1.3l5.7-3.8l6.2,4l0.8-1.3l-5.7-3.5
					C116.5,57.5,125.1,52,125.5,51.7C125.5,51.7,125.5,51.7,125.5,51.7z M115.2,56.5l-6.7-4.2l13.1,0L115.2,56.5z"/>
			</g>
		</g>
		<path class="st1" d="M144.4,26.9c0-2.8-0.9-14.5-2.5-17.7c-4.3,1.6-12.1,6.9-13.9,12.3c-8.5-1.3-18-1.1-26.4,0.3
			c-1.4-5.8-8.4-10.3-13.7-12.8c-2.2,3.8-3.2,12.5-3,18.7c0,0,0,0,0,0c1,26,13.8,42.2,30.5,52.1C132.6,70.1,144.9,50.9,144.4,26.9
			C144.4,26.9,144.4,26.9,144.4,26.9z M130.1,21.9c0.1,0,0.1,0,0.2,0C130.2,21.9,130.2,21.9,130.1,21.9z M129,21.7
			c0.2,0,0.3,0.1,0.5,0.1C129.3,21.8,129.2,21.7,129,21.7z M141.7,28.8c0.4,21.7-10.6,38.9-26.1,47.7c-26.3-13.1-31.2-46.2-26.7-64
			c1.2,6.8,3.5,11.1,8.4,13.2c10.7-3.1,25.3-3.3,36.1-0.3c4.5-3.3,6.3-8.3,7.2-12.6C141.9,17.8,141.7,28.8,141.7,28.8z"/>
		<path class="st1" d="M152.9,103.7c-2.7-3-8-4.4-12.4-4.3c-3.1-3.7-21.3-22.8-21.3-22.8l-1.3,1.6l21.9,23.6l1-0.1
			c6-0.5,9.3,2.7,10.2,3.7c0.7,0.7,1.1,1.4,1.3,1.9h-12c-27.6-14.4-51.9-24.6-77.7-26.8c0.1-3.6,0.7-7.6,1.9-12.2l-2.4-0.6
			c-1.3,4.6-1.9,8.9-2,12.6c-2.7-0.2-5.4-0.3-8.1-0.3c-2.3,0-4.4,0.2-6.3,0.6c-2.5-2.5-4.6-4.9-6.5-7.2C51.3,61,71,49.7,88.2,45.6
			l-0.6-2.4C69.2,47.6,49,59.7,37.7,71.4c-5.2-7-7.3-12.8-7.9-17.2c-0.8-5.5,0.5-10.6,3.8-14.7c5.1-6.4,12.4-6.8,19.9-5.6
			c-0.1,1.2,0,2.3,0.5,3c2,2.9,12.6,4,19,1.1c-4.7-6.6-14.2-9.8-16.8-8.5c-0.9,0.4-1.5,1.2-2,2.1c-2.6-0.5-5.2-0.8-7-0.8
			c-6.6,0-11.7,2.4-15.4,7.1c-3.7,4.6-5.2,10.3-4.3,16.6c0.8,5.9,3.7,12.2,8.6,18.7c-0.8,0.9-1.6,1.7-2.4,2.6
			c-11.9,13.3-20.6,27.6-20.6,30v1.2h15.7l-0.3-1.5c-0.9-4.7,0.9-10.6,4.5-14.9c2.3-2.8,6.1-5.9,12-7.3c5.3,5.1,12,10.6,19.5,15.9
			h11.7V98c0-1.4-0.7-2.6-1.9-3.4c-1.8-1.2-4.7-1.4-7.3-0.5c-2.5-2.8-3.9-6.5-4.2-11.1c25.4,2.2,49.6,12.5,77,26.8h15.1l0.2-1
			C155.3,107.3,154.5,105.5,152.9,103.7z M31.1,89.1c-3.7,4.5-5.7,10.4-5.2,15.5H16c2-4.3,9.9-16.8,21.6-29.3c1.6,2,3.4,4,5.4,6
			C37.3,83,33.5,86.2,31.1,89.1z"/>
	</g>
</g>
</svg>
