<?xml version="1.0" encoding="UTF-8"?>
<svg width="9px" height="16px" viewBox="0 0 9 16" version="1.1" xmlns="http://www.w3.org/2000/svg" xmlns:xlink="http://www.w3.org/1999/xlink">
    <!-- Generator: sketchtool 62 (101010) - https://sketch.com -->
    <title>0DA65520-6DD6-45B1-A509-E1E0F07CB183</title>
    <desc>Created with sketchtool.</desc>
    <g id="Page-1" stroke="none" stroke-width="1" fill="none" fill-rule="evenodd">
        <g id="Apzumi-DH3" transform="translate(-465.000000, -149.000000)" fill="#283480" fill-rule="nonzero">
            <g id="Section1" transform="translate(270.000000, 144.000000)">
                <g id="Group-3">
                    <g id="Chevron-small" transform="translate(195.000000, 5.000000)">
                        <path d="M7.5450305,6.67463952 L1.06740309,0.183512102 C0.823527998,-0.0608317387 0.4278091,-0.0612067388 0.183527759,0.182605852 C-0.0608160822,0.426418443 -0.0612223323,0.822137341 0.182590259,1.06648118 L6.66068642,7.55807735 C6.90437401,7.80176494 6.90437401,8.19826509 6.66021767,8.44242143 L0.182590259,14.9335489 C-0.0612223323,15.1778927 -0.0608160822,15.5736116 0.183527759,15.8174242 C0.305496554,15.9391742 0.465277864,16.000018 0.624996674,16.000018 C0.785152983,16.000018 0.945309293,15.9388305 1.06740309,15.8164867 L7.54456175,9.32582801 C8.27562453,8.59476524 8.27562453,7.40523355 7.5450305,6.67463952 Z" id="Path"></path>
                    </g>
                </g>
            </g>
        </g>
    </g>
</svg>