<svg xmlns="http://www.w3.org/2000/svg" xmlns:xlink="http://www.w3.org/1999/xlink" preserveAspectRatio="xMidYMid" width="132" height="104" viewBox="0 0 132 104">
  <defs>
    <style>
      .cls-1 {
        fill: #28347f;
        opacity: 0.6;
        fill-rule: evenodd;
      }
    </style>
  </defs>
  <path d="M0.018,66.745 C0.018,89.864 14.957,103.024 31.673,103.024 C46.967,103.024 59.771,90.219 59.771,74.925 C59.771,59.631 49.101,49.317 35.586,49.317 C32.740,49.317 29.539,49.673 28.472,50.384 C31.673,37.580 44.833,22.641 56.215,16.595 L36.653,0.945 C14.601,16.239 0.018,40.069 0.018,66.745 ZM72.576,66.745 C72.576,89.864 87.158,103.024 103.875,103.024 C119.524,103.024 131.973,90.219 131.973,74.925 C131.973,59.631 121.303,49.317 108.143,49.317 C105.297,49.317 102.096,49.673 101.029,50.384 C103.875,37.580 117.390,22.641 128.772,16.595 L108.854,0.945 C86.803,16.239 72.576,40.069 72.576,66.745 Z" class="cls-1"/>
</svg>
