<svg xmlns="http://www.w3.org/2000/svg" xmlns:xlink="http://www.w3.org/1999/xlink" preserveAspectRatio="xMidYMid" width="2560" height="1563.87" viewBox="0 0 2560 1563.87">
  <defs>
    <style>
      .cls-1 {
        opacity: 0;
      }

      .cls-2, .cls-3, .cls-4 {
        fill: #e63842;
        stroke-linejoin: round;
        stroke-width: 40px;
        fill-opacity: 0;
      }

      .cls-2 {
        stroke: #7f57cb;
      }

      .cls-3 {
        stroke: #00dc6b;
      }

      .cls-4 {
        stroke: #e6214a;
      }
    </style>
  </defs>
  <g>
    <rect y="215.62" width="2560" height="1302" class="cls-1"/>
    <circle cx="2231.815" cy="195.935" r="175.935" class="cls-2"/>
    <circle cx="461.813" cy="367.935" r="175.938" class="cls-3"/>
    <circle cx="283.813" cy="1367.935" r="175.938" class="cls-4"/>
    <circle cx="1735" cy="1328.62" r="105" class="cls-3"/>
    <circle cx="1777" cy="454.62" r="105" class="cls-4"/>
    <circle cx="625" cy="694.62" r="105" class="cls-2"/>
  </g>
</svg>
