<svg xmlns="http://www.w3.org/2000/svg" xmlns:xlink="http://www.w3.org/1999/xlink" preserveAspectRatio="xMidYMid" width="12" height="9" viewBox="0 0 12 9">
  <defs>
    <style>
      .cls-1 {
        fill: #fff;
        fill-rule: evenodd;
      }
    </style>
  </defs>
  <path d="M-0.000,9.000 L-0.000,8.000 L12.000,8.000 L12.000,9.000 L-0.000,9.000 ZM-0.000,4.000 L12.000,4.000 L12.000,5.000 L-0.000,5.000 L-0.000,4.000 ZM-0.000,0.000 L12.000,0.000 L12.000,1.000 L-0.000,1.000 L-0.000,0.000 Z" class="cls-1"/>
</svg>
