<svg xmlns="http://www.w3.org/2000/svg" xmlns:xlink="http://www.w3.org/1999/xlink" preserveAspectRatio="xMidYMid" width="161" height="162" viewBox="0 0 161 162">
  <defs>
    <style>
      .cls-1 {
        fill: #28347f;
        stroke: #27327c;
        stroke-linejoin: round;
        stroke-opacity: 0.3;
        stroke-width: 2px;
        fill-opacity: 0;
      }

      .cls-2 {
        fill: #eaecf1;
        filter: url(#color-overlay-1);
        fill-rule: evenodd;
      }
    </style>

    <filter id="color-overlay-1" filterUnits="userSpaceOnUse">
      <feFlood flood-color="#28347f"/>
      <feComposite operator="in" in2="SourceGraphic"/>
      <feBlend in2="SourceGraphic" result="solidFill"/>
    </filter>
  </defs>
  <g>
    <rect x="-26" y="1" width="186" height="160" class="cls-1"/>
    <path d="M76.000,84.000 L74.000,84.000 L74.000,82.000 L76.000,82.000 L76.000,84.000 ZM78.000,86.000 L76.000,86.000 L76.000,84.000 L78.000,84.000 L78.000,86.000 ZM80.000,88.000 L78.000,88.000 L78.000,86.000 L80.000,86.000 L80.000,88.000 ZM82.000,90.000 L80.000,90.000 L80.000,88.000 L82.000,88.000 L82.000,90.000 ZM84.000,92.000 L82.000,92.000 L82.000,90.000 L84.000,90.000 L84.000,92.000 ZM86.000,94.000 L84.000,94.000 L84.000,92.000 L86.000,92.000 L86.000,94.000 ZM88.000,96.000 L86.000,96.000 L86.000,94.000 L88.000,94.000 L88.000,96.000 ZM90.000,98.000 L88.000,98.000 L88.000,96.000 L90.000,96.000 L90.000,98.000 ZM72.000,82.000 L72.000,80.000 L74.000,80.000 L74.000,82.000 L72.000,82.000 ZM76.000,78.000 L76.000,80.000 L74.000,80.000 L74.000,78.000 L76.000,78.000 ZM78.000,76.000 L78.000,78.000 L76.000,78.000 L76.000,76.000 L78.000,76.000 ZM80.000,74.000 L80.000,76.000 L78.000,76.000 L78.000,74.000 L80.000,74.000 ZM82.000,72.000 L82.000,74.000 L80.000,74.000 L80.000,72.000 L82.000,72.000 ZM84.000,70.000 L84.000,72.000 L82.000,72.000 L82.000,70.000 L84.000,70.000 ZM86.000,68.000 L86.000,70.000 L84.000,70.000 L84.000,68.000 L86.000,68.000 ZM88.000,66.000 L88.000,68.000 L86.000,68.000 L86.000,66.000 L88.000,66.000 ZM90.000,64.000 L90.000,66.000 L88.000,66.000 L88.000,64.000 L90.000,64.000 Z" class="cls-2"/>
  </g>
</svg>
