<?xml version="1.0" encoding="UTF-8"?>
<svg width="24px" height="17px" viewBox="0 0 24 17" version="1.1" xmlns="http://www.w3.org/2000/svg" xmlns:xlink="http://www.w3.org/1999/xlink">
    <!-- Generator: sketchtool 62 (101010) - https://sketch.com -->
    <title>5AF77FB4-B295-4D7C-977F-F59D5E9E3211</title>
    <desc>Created with sketchtool.</desc>
    <g id="Page-1" stroke="none" stroke-width="1" fill="none" fill-rule="evenodd">
        <g id="Apzumi-DH3" transform="translate(-606.000000, -8064.000000)" fill="#E6204B">
            <g id="Section7" transform="translate(270.000000, 7627.000000)">
                <g id="Buttons-/-Primary-icon-Copy" transform="translate(6.000000, 433.000000)">
                    <g id="Icons-/-Right-arrow" transform="translate(330.000000, 0.000000)">
                        <g id="right-arrow" transform="translate(0.000000, 4.000000)">
                            <path d="M15.90375,0.24975 C15.582,-0.08325 15.0465,-0.08325 14.7135,0.24975 C14.39175,0.5715 14.39175,1.107 14.7135,1.428 L20.74875,7.46325 L0.83325,7.46325 C0.369,7.464 0,7.833 0,8.29725 C0,8.7615 0.369,9.1425 0.83325,9.1425 L20.74875,9.1425 L14.7135,15.1665 C14.39175,15.4995 14.39175,16.03575 14.7135,16.35675 C15.0465,16.68975 15.58275,16.68975 15.90375,16.35675 L23.36775,8.89275 C23.70075,8.571 23.70075,8.0355 23.36775,7.7145 L15.90375,0.24975 Z" id="Path"></path>
                        </g>
                    </g>
                </g>
            </g>
        </g>
    </g>
</svg>