<?xml version="1.0" encoding="utf-8"?>
<!-- Generator: Adobe Illustrator 20.1.0, SVG Export Plug-In . SVG Version: 6.00 Build 0)  -->
<svg version="1.1" id="Layer_1" xmlns="http://www.w3.org/2000/svg" xmlns:xlink="http://www.w3.org/1999/xlink" x="0px" y="0px"
	 viewBox="0 0 18 22" style="enable-background:new 0 0 18 22;" xml:space="preserve">
<style type="text/css">
	.st0{opacity:0.4;fill:#28347F;enable-background:new    ;}
</style>
<path class="st0" d="M9.1,6.8c0.7,0,1.9-0.9,3.5-0.9c1.5-0.1,3,0.7,3.8,1.9c-1.3,0.8-2.1,2.2-2.1,3.7c0,1.7,1,3.3,2.6,4
	c0,0-1.8,5.2-4.3,5.2c-1.1,0-2-0.8-3.2-0.8c-1.2,0-2.4,0.8-3.2,0.8c-2.3,0-5.1-4.9-5.1-8.9C1.1,8,3.5,6,5.7,6C7.2,6,8.4,6.8,9.1,6.8
	z M10.2,2.7C9.3,3.5,9,4.6,9.1,5.8c1.1,0.1,2.3-0.2,3.1-1.1s1.2-2,1.1-3.1C12.2,1.5,11,1.8,10.2,2.7z"/>
</svg>
