<?xml version="1.0" encoding="utf-8"?>
<!-- Generator: Adobe Illustrator 20.1.0, SVG Export Plug-In . SVG Version: 6.00 Build 0)  -->
<svg version="1.1" id="Layer_1" xmlns="http://www.w3.org/2000/svg" xmlns:xlink="http://www.w3.org/1999/xlink" x="0px" y="0px"
	 viewBox="0 0 36 36" style="enable-background:new 0 0 36 36;" xml:space="preserve">
<style type="text/css">
	.st0{fill:#2A377E;}
</style>
<g>
	<g>
		<polygon class="st0" points="12.9,30.3 1.4,18.7 4.2,15.9 12.9,24.5 31.8,5.7 34.6,8.6 		"/>
	</g>
</g>
</svg>
