<?xml version="1.0" encoding="UTF-8"?>
<svg width="50px" height="59px" viewBox="0 0 50 59" version="1.1" xmlns="http://www.w3.org/2000/svg" xmlns:xlink="http://www.w3.org/1999/xlink">
    <!-- Generator: sketchtool 62 (101010) - https://sketch.com -->
    <title>08B94B6E-FCAA-4674-A34F-258FC9FF9F55</title>
    <desc>Created with sketchtool.</desc>
    <g id="Page-1" stroke="none" stroke-width="1" fill="none" fill-rule="evenodd">
        <g id="Apzumi-DH4" transform="translate(-277.000000, -1981.000000)" fill="#283480" fill-rule="nonzero">
            <g id="Section3" transform="translate(270.000000, 1068.000000)">
                <g id="Group-24" transform="translate(0.000000, 910.000000)">
                    <g id="Group-19">
                        <g id="Icons-/-263x263-Copy-7">
                            <g id="techskillls" transform="translate(7.300380, 3.406844)">
                                <path d="M45.5802298,4.38286494 C44.1065625,3.25558213 42.3409206,2.47497897 40.4235438,1.81376218 L40.4235438,1.81376218 C39.2556453,1.41198114 35.3657154,0.270922987 34.6484234,0.0505173886 C34.5405762,0.0166202706 34.4281284,0 34.3150665,0 L15.320622,0 C15.2075601,0 15.0951123,0.0166202706 14.9872651,0.0505173886 C14.2722721,0.280106554 10.3892393,1.41198114 9.2144437,1.81376218 L9.2144437,1.81376218 C7.29476793,2.47497897 5.53602306,3.25558213 4.05545876,4.38286494 C1.32653044,6.46753455 0,9.48204029 0,13.6146453 L0,47.5341485 C0,48.1567296 0.50538784,48.6614313 1.12881533,48.6614313 L8.32472571,48.6614313 L6.79128411,56.31823 C6.72070577,56.6519672 6.80588612,56.9996478 7.02278463,57.2631455 C7.23968314,57.5266432 7.56477359,57.6773774 7.90630536,57.6729071 L41.7362802,57.6729071 C42.077812,57.6773774 42.4029024,57.5266432 42.6198009,57.2631455 C42.8366994,56.9996478 42.9218798,56.6519672 42.8513014,56.31823 L41.3178598,48.6545437 L48.5137702,48.6545437 C49.1371977,48.6545437 49.6425856,48.149842 49.6425856,47.5272609 L49.6425856,13.6146453 C49.6333895,9.48204029 48.3068591,6.46753455 45.5802298,4.38286494 Z M38.3935154,3.512722 L28.2019912,21.1497617 L26.1190856,17.5498036 L34.8415405,2.46120362 C35.282951,2.59436534 37.6624293,3.28313283 38.3935154,3.512722 Z M17.2747829,2.24998159 L32.3586066,2.24998159 L24.8178443,15.2975338 L17.2747829,2.24998159 Z M2.25763067,13.6146453 C2.25763067,10.1891749 3.26229931,7.82211063 5.42567044,6.16906864 C6.53848916,5.36417944 7.76092895,4.72247741 9.05581181,4.26347857 L10.8122577,7.30323912 C11.0141405,7.65818159 11.3920787,7.87673704 11.8008332,7.87491614 C11.9983049,7.87431269 12.1922911,7.82291684 12.3640914,7.72568318 C12.9026966,7.4129785 13.0866885,6.72420232 12.7756147,6.18513988 L11.2398741,3.512722 C11.9709602,3.28313283 14.3435415,2.59436534 14.8033441,2.46120362 L36.9428383,40.7750435 L32.7793259,40.7750435 L17.288577,13.9819879 C17.0968496,13.6147916 16.7189529,13.3821389 16.3043182,13.3760274 C15.8896835,13.369916 15.5050759,13.59133 15.3025805,13.9527157 C15.1000852,14.3141015 15.1123081,14.7572682 15.334416,15.1069748 L30.1745443,40.7750435 L10.7915666,40.7750435 L10.152441,22.0681183 C10.1509943,21.6572863 9.92585406,21.2797714 9.56482439,21.0828036 C9.20379471,20.8858357 8.76405098,20.9006082 8.41709213,21.1213599 C8.07013328,21.3421115 7.87090634,21.7338823 7.89710931,22.1438828 L8.5730191,41.9206934 L8.5730191,46.4091616 L2.25763067,46.4091616 L2.25763067,13.6146453 Z M10.8306498,46.4091616 L10.8306498,43.0296091 L38.8050387,43.0296091 L38.8050387,46.4091616 L10.8306498,46.4091616 Z M40.3614705,55.4205363 L9.27191903,55.4205363 L10.6260376,48.6614313 L39.0073519,48.6614313 L40.3614705,55.4205363 Z M47.3780578,46.4091616 L41.0603704,46.4091616 L41.0603704,41.9206934 L41.5822463,26.6484222 C41.6084493,26.2384217 41.4092224,25.8466509 41.0622635,25.6258993 C40.7153047,25.4051477 40.2755609,25.3903751 39.9145313,25.587343 C39.5535016,25.7843108 39.3283613,26.1618257 39.3269147,26.5726577 L38.8809062,39.6248018 L29.5032325,23.4020314 L40.5706806,4.26347857 C41.8689014,4.72239247 43.0944944,5.36489723 44.2100181,6.17136453 C46.3710902,7.82440652 47.3780578,10.1914708 47.3780578,13.6169412 L47.3780578,46.4091616 Z" id="Shape"></path>
                            </g>
                        </g>
                    </g>
                </g>
            </g>
        </g>
    </g>
</svg>